[{
  "_id": {
    "$oid": "6079dc5e6b438d19ac8f20e6"
  },
  "apartmentName": "White Apartments",
  "numberOfRooms": 1,
  "numOfGuests": 4,
  "location": {
    "$oid": "60707dee70cd0d322b8a2274"
  },
  "destination": "serbia",
  "rentingDate": {
    "$date": "2020-01-04T00:00:00Z"
  },
  "dateAvailable": {
    "$date": "2021-01-05T00:00:00Z"
  },
  "user": {
    "$oid": "607051793dbb8a1739024ad8"
  },
  "comments": [],
  "images": "/../../assets/img/gallery/white.jpg",
  "pricePerNight": "30",
  "checkIn": "13:00",
  "checkOut": "11:00",
  "status": "active",
  "amenities": [],
  "reservations": []
},{
  "_id": {
    "$oid": "6079dc5e6b438d19ac8f20e7"
  },
  "apartmentName": "Aria Royal",
  "numberOfRooms": 2,
  "numOfGuests": 5,
  "location": {
    "$oid": "60707dee70cd0d322b8a2274"
  },
  "destination": "serbia",
  "rentingDate": {
    "$date": "2018-03-10T00:00:00Z"
  },
  "dateAvailable": {
    "$date": "2020-10-05T00:00:00Z"
  },
  "user": {
    "$oid": "607051793dbb8a1739024ad8"
  },
  "comments": [],
  "images": "/../../assets/img/gallery/arialroyal.jpg",
  "pricePerNight": "70",
  "checkIn": "14:00",
  "checkOut": "10:00",
  "status": "active",
  "amenities": [],
  "reservations": []
},{
  "_id": {
    "$oid": "6079dc5e6b438d19ac8f20e8"
  },
  "apartmentName": "Stella",
  "numberOfRooms": 1,
  "numOfGuests": 4,
  "location": {
    "$oid": "60707dee70cd0d322b8a2273"
  },
  "destination": "serbia",
  "rentingDate": {
    "$date": "2017-01-05T00:00:00Z"
  },
  "dateAvailable": {
    "$date": "2021-01-07T00:00:00Z"
  },
  "user": {
    "$oid": "607051793dbb8a1739024ad8"
  },
  "comments": [],
  "images": "/../../assets/img/gallery/stella.jpg",
  "pricePerNight": "50",
  "checkIn": "13:30",
  "checkOut": "11:30",
  "status": "active",
  "amenities": [],
  "reservations": []
},{
  "_id": {
    "$oid": "6079dc5e6b438d19ac8f20e9"
  },
  "apartmentName": "Green Hill",
  "numberOfRooms": 2,
  "numOfGuests": 7,
  "location": {
    "$oid": "60707dee70cd0d322b8a2273"
  },
  "destination": "serbia",
  "rentingDate": {
    "$date": "2015-06-25T00:00:00Z"
  },
  "dateAvailable": {
    "$date": "2021-01-10T00:00:00Z"
  },
  "user": {
    "$oid": "607051793dbb8a1739024adb"
  },
  "comments": [],
  "images": "/../../assets/img/gallery/greenhill.jpg",
  "pricePerNight": "25",
  "checkIn": "12:00",
  "checkOut": "09:00",
  "status": "active",
  "amenities": [],
  "reservations": []
},{
  "_id": {
    "$oid": "6092916ea342272a99d9ae05"
  },
  "apartmentName": "Horizont",
  "numberOfRooms": 4,
  "numOfGuests": 2,
  "location": {
    "$oid": "60707dee70cd0d322b8a2273"
  },
  "destination": "serbia",
  "rentingDate": {
    "$date": "2019-08-22T00:00:00Z"
  },
  "dateAvailable": {
    "$date": "2020-08-25T00:00:00Z"
  },
  "user": {
    "$oid": "607051793dbb8a1739024adb"
  },
  "comments": [],
  "images":"/../../assets/img/gallery/horizonti.jpg",
  "pricePerNight": "20",
  "checkIn": "12:00",
  "checkOut": "09:00",
  "status": "active",
  "amenities": [],
  "reservations": []
},{
  "_id": {
    "$oid": "6092916ea342272a99d9ae06"
  },
  "apartmentName": "Hisar",
  "numberOfRooms": 2,
  "numOfGuests": 7,
  "location": {
    "$oid": "60707dee70cd0d322b8a2273"
  },
  "destination": "serbia",
  "rentingDate": {
    "$date": "2021-04-05T00:00:00Z"
  },
  "dateAvailable": {
    "$date": "2021-04-10T00:00:00Z"
  },
  "user": {
    "$oid": "607051793dbb8a1739024adb"
  },
  "comments": [],
  "images":"/../../assets/img/gallery/hisar.jpg",
  "pricePerNight": "15",
  "checkIn": "13:00",
  "checkOut": "10:00",
  "status": "active",
  "amenities": [],
  "reservations": []
},{
  "_id": {
    "$oid": "6092de47198798148986551f"
  },
  "apartmentName": "Relax",
  "numberOfRooms": 4,
  "numOfGuests": 2,
  "location": {
    "$oid": "6092ccb01987981489865517"
  },
  "destination": "serbia",
  "rentingDate": {
    "$date": "2019-04-11T00:00:00Z"
  },
  "dateAvailable": {
    "$date": "2020-10-05T00:00:00Z"
  },
  "user": {
    "$oid": "607051793dbb8a1739024ad8"
  },
  "comments": [],
  "images": "/../../assets/img/gallery/relax.jpg",
  "pricePerNight": "40",
  "checkIn": "12:30",
  "checkOut": "10:00",
  "status": "active",
  "amenities": [],
  "reservations": []
},{
  "_id": {
    "$oid": "6092de471987981489865520"
  },
  "apartmentName": "Biser",
  "numberOfRooms": 5,
  "numOfGuests": 5,
  "location": {
    "$oid": "6092ccb01987981489865517"
  },
  "destination": "serbia",
  "rentingDate": {
    "$date": "2019-10-20T00:00:00Z"
  },
  "dateAvailable": {
    "$date": "2021-10-10T00:00:00Z"
  },
  "user": {
    "$oid": "607051793dbb8a1739024adb"
  },
  "comments": [],
  "images": "/../../assets/img/gallery/biser.jpg",
  "pricePerNight": "30",
  "checkIn": "12:00",
  "checkOut": "9:00",
  "status": "active",
  "amenities": [],
  "reservations": []
},{
  "_id": {
    "$oid": "6092de471987981489865521"
  },
  "apartmentName": "Larisa",
  "numberOfRooms": 1,
  "numOfGuests": 3,
  "location": {
    "$oid": "6092ccb01987981489865517"
  },
  "destination": "serbia",
  "rentingDate": {
    "$date": "2018-10-20T00:00:00Z"
  },
  "dateAvailable": {
    "$date": "2022-01-01T00:00:00Z"
  },
  "user": {
    "$oid": "607051793dbb8a1739024adb"
  },
  "comments": [],
  "images": "/../../assets/img/gallery/larisa.jpg",
  "pricePerNight": "45",
  "checkIn": "13:00",
  "checkOut": "10:30",
  "status": "active",
  "amenities": [],
  "reservations": []
},{
  "_id": {
    "$oid": "6079dc5e6b438d19ac8f20ea"
  },
  "apartmentName": "Horizon",
  "numberOfRooms": 1,
  "numOfGuests": 3,
  "location": {
    "$oid": "60707dee70cd0d322b8a2275"
  },
  "destination": "world",
  "rentingDate": {
    "$date": "2018-10-20T00:00:00Z"
  },
  "dateAvailable": {
    "$date": "2022-01-01T00:00:00Z"
  },
  "user": {
    "$oid": "607051793dbb8a1739024adb"
  },
  "comments": [],
  "images": "/../../assets/img/gallery/horizon5.jpg",
  "pricePerNight": "80",
  "checkIn": "13:00",
  "checkOut": "13:00",
  "status": "active",
  "amenities": [],
  "reservations": []
},{
  "_id": {
    "$oid": "6079dc5e6b438d19ac8f20eb"
  },
  "apartmentName": "Petra Vistitors",
  "numberOfRooms": 2,
  "numOfGuests": 4,
  "location": {
    "$oid": "60707dee70cd0d322b8a2275"
  },
  "rentingDate": {
    "$date": "2018-02-02T00:00:00Z"
  },
  "dateAvailable": {
    "$date": "2021-06-06T00:00:00Z"
  },
  "user": {
    "$oid": "607051793dbb8a1739024adb"
  },
  "comments": [],
  "images": "/../../assets/img/gallery/petravisitors.jpg",
  "pricePerNight": "100e",
  "checkIn": "15:00",
  "checkOut": "13:00",
  "status": "active",
  "amenities": [],
  "reservations": []
},{
  "_id": {
    "$oid": "6079dc5e6b438d19ac8f20ec"
  },
  "apartmentName": "Paseo de Gracia",
  "numberOfRooms": 0,
  "numOfGuests": 2,
  "location": {
    "$oid": "60707dee70cd0d322b8a2276"
  },
  "destination": "world",
  "rentingDate": {
    "$date": "2018-02-02T00:00:00Z"
  },
  "dateAvailable": {
    "$date": "2021-06-06T00:00:00Z"
  },
  "user": {
    "$oid": "607051793dbb8a1739024ad8"
  },
  "comments": [],
  "images": "/../../assets/img/gallery/paseodegracia.jpg",
  "pricePerNight": "75",
  "checkIn": "12:00",
  "checkOut": "10:00",
  "status": "active",
  "amenities": [],
  "reservations": []
},{
  "_id": {
    "$oid": "6079dc5e6b438d19ac8f20ed"
  },
  "apartmentName": "Feel at Sants",
  "numberOfRooms": 2,
  "numOfGuests": 5,
  "location": {
    "$oid": "60707dee70cd0d322b8a2276"
  },
  "destination": "world",
  "rentingDate": {
    "$date": "2021-02-02T00:00:00Z"
  },
  "dateAvailable": {
    "$date": "2021-08-06T00:00:00Z"
  },
  "user": {
    "$oid": "607051793dbb8a1739024ad8"
  },
  "comments": [],
  "images": "/../../assets/img/gallery/feelatsants.jpg",
  "pricePerNight": "75",
  "checkIn": "15:00",
  "checkOut": "12:00",
  "status": "active",
  "amenities": [],
  "reservations": []
},{
  "_id": {
    "$oid": "6079dc5e6b438d19ac8f20ee"
  },
  "apartmentName": "Inspired Apartments",
  "numberOfRooms": 0,
  "numOfGuests": 2,
  "location": {
    "$oid": "60707dee70cd0d322b8a2276"
  },
  "destination": "world",
  "rentingDate": {
    "$date": "2017-05-02T00:00:00Z"
  },
  "dateAvailable": {
    "$date": "2021-06-06T00:00:00Z"
  },
  "user": {
    "$oid": "607051793dbb8a1739024ad8"
  },
  "comments": [],
  "images": "/../../assets/img/gallery/inspired.jpg",
  "pricePerNight": "150",
  "checkIn": "13:00",
  "checkOut": "11:00",
  "status": "active",
  "amenities": [],
  "reservations": []
},{
  "_id": {
    "$oid": "607bec3f21f972d0648d2d95"
  },
  "apartmentName": "Clio",
  "numberOfRooms": 4,
  "numOfGuests": 8,
  "location": {
    "$oid": "60707dee70cd0d322b8a2274"
  },
  "destination": "serbia",
  "rentingDate": {
    "$date": "2019-05-02T00:00:00Z"
  },
  "dateAvailable": {
    "$date": "2019-06-06T00:00:00Z"
  },
  "user": {
    "$oid": "607051793dbb8a1739024ad8"
  },
  "comments": [],
  "images": "Klio.jpg",
  "pricePerNight": "90",
  "checkIn": "13:00",
  "checkOut": "11:00",
  "status": "active",
  "amenities": [],
  "reservations": []
},{
  "_id": {
    "$oid": "607bec3f21f972d0648d2d96"
  },
  "apartmentName": "Studio rosa",
  "numberOfRooms": 3,
  "numOfGuests": 5,
  "location": {
    "$oid": "60707dee70cd0d322b8a2274"
  },
  "destination": "serbia",
  "rentingDate": {
    "$date": "2021-04-04T00:00:00Z"
  },
  "dateAvailable": {
    "$date": "2021-04-06T00:00:00Z"
  },
  "user": {
    "$oid": "607051793dbb8a1739024ad8"
  },
  "comments": [],
  "images": "/../../assets/img/gallery/StudioRosa.jpeg",
  "pricePerNight": "50",
  "checkIn": "14:00",
  "checkOut": "12:00",
  "status": "active",
  "amenities": [],
  "reservations": []
},{
  "_id": {
    "$oid": "609337ae5b6b5a43cea0d989"
  },
  "apartmentName": "Wadi Musa",
  "numberOfRooms": 30,
  "numOfGuests": 50,
  "location": {
    "$oid": "60707dee70cd0d322b8a2275"
  },
  "destination": "world",
  "rentingDate": {
    "$date": "2021-10-06T00:00:00Z"
  },
  "dateAvailable": {
    "$date": "2021-12-06T00:00:00Z"
  },
  "user": {
    "$oid": "607051793dbb8a1739024ad8"
  },
  "comments": [],
  "images": "/../../assets/img/gallery/wadimusa.jpg",
  "pricePerNight": "75",
  "checkIn": "14:00",
  "checkOut": "11:00",
  "status": "active",
  "amenities": [],
  "reservations": []
},{
  "_id": {
    "$oid": "6093b00032321e34cbf44d9f"
  },
  "apartmentName": "Angela",
  "numberOfRooms": 2,
  "numOfGuests": 2,
  "location": {
    "$oid": "6093a79f32321e34cbf44d97"
  },
  "destination": "serbia",
  "rentingDate": {
    "$date": "2020-04-29T00:00:00Z"
  },
  "dateAvailable": {
    "$date": "2020-05-31T00:00:00Z"
  },
  "user": {
    "$oid": "607051793dbb8a1739024ad8"
  },
  "comments": [],
  "images": "/../../assets/img/gallery/angela.jpg",
  "pricePerNight": "50",
  "checkIn": "14:00",
  "checkOut": "11:00",
  "status": "active",
  "amenities": [],
  "reservations": []
},{
  "_id": {
    "$oid": "6093b00032321e34cbf44da0"
  },
  "apartmentName": "Apartmani Mil Mari",
  "numberOfRooms": 3,
  "numOfGuests": 4,
  "location": {
    "$oid": "6093a79f32321e34cbf44d97"
  },
  "destination": "serbia",
  "rentingDate": {
    "$date": "2021-03-19T00:00:00Z"
  },
  "dateAvailable": {
    "$date": "2021-03-21T00:00:00Z"
  },
  "user": {
    "$oid": "607051793dbb8a1739024ad8"
  },
  "comments": [],
  "images": "/../../assets/img/gallery/milmari.jpg",
  "pricePerNight": "40",
  "checkIn": "13:00",
  "checkOut": "10:00",
  "status": "active",
  "amenities": [],
  "reservations": []
},{
  "_id": {
    "$oid": "6093b00032321e34cbf44da1"
  },
  "apartmentName": "Apartmani Marija",
  "numberOfRooms": 5,
  "numOfGuests": 4,
  "location": {
    "$oid": "6093a79f32321e34cbf44d97"
  },
  "destination": "serbia",
  "rentingDate": {
    "$date": "2021-03-01T00:00:00Z"
  },
  "dateAvailable": {
    "$date": "2021-03-11T00:00:00Z"
  },
  "user": {
    "$oid": "607051793dbb8a1739024adb"
  },
  "comments": [],
  "images": "/../../assets/img/gallery/marija2.jpg",
  "pricePerNight": "70e",
  "checkIn": "13:00",
  "checkOut": "10:00",
  "status": "active",
  "amenities": [],
  "reservations": []
},{
  "_id": {
    "$oid": "6093e6b39cdcefad8530d662"
  },
  "apartmentName": "Casa Sulla",
  "numberOfRooms": 9,
  "numOfGuests": 20,
  "location": {
    "$oid": "6093d3119cdcefad8530d659"
  },
  "destination": "world",
  "rentingDate": {
    "$date": "2021-08-03T00:00:00Z"
  },
  "dateAvailable": {
    "$date": "2021-09-11T00:00:00Z"
  },
  "user": {
    "$oid": "607051793dbb8a1739024adb"
  },
  "comments": [],
  "images": "/../../assets/img/gallery/casasulla.jpg",
  "pricePerNight": "130",
  "checkIn": "10:00",
  "checkOut": "11:00",
  "status": "active",
  "amenities": [],
  "reservations": []
},{
  "_id": {
    "$oid": "6093e6b39cdcefad8530d663"
  },
  "apartmentName": "Luxury Palace",
  "numberOfRooms": 11,
  "numOfGuests": 22,
  "location": {
    "$oid": "6093d3119cdcefad8530d659"
  },
  "destination": "world",
  "rentingDate": {
    "$date": "2021-08-03T00:00:00Z"
  },
  "dateAvailable": {
    "$date": "2021-09-11T00:00:00Z"
  },
  "user": {
    "$oid": "607051793dbb8a1739024adb"
  },
  "comments": [],
  "images": "/../../assets/img/gallery/luxurypalace.jpg",
  "pricePerNight": "490",
  "checkIn": "10:00",
  "checkOut": "11:00",
  "status": "active",
  "amenities": [],
  "reservations": []
},{
  "_id": {
    "$oid": "6093e6b39cdcefad8530d664"
  },
  "apartmentName": "Venice Apartments",
  "numberOfRooms": 20,
  "numOfGuests": 30,
  "location": {
    "$oid": "6093d3119cdcefad8530d659"
  },
  "destination": "world",
  "rentingDate": {
    "$date": "2021-08-03T00:00:00Z"
  },
  "dateAvailable": {
    "$date": "2021-09-11T00:00:00Z"
  },
  "user": {
    "$oid": "607051793dbb8a1739024adb"
  },
  "comments": [],
  "images": "/../../assets/img/gallery/veniceapartments.jpg",
  "pricePerNight": "310",
  "checkIn": "10:00",
  "checkOut": "11:00",
  "status": "active",
  "amenities": [],
  "reservations": []
},{
  "_id": {
    "$oid": "6093e6b39cdcefad8530d665"
  },
  "apartmentName": "Akihabara",
  "numberOfRooms": 9,
  "numOfGuests": 20,
  "location": {
    "$oid": "6093d3119cdcefad8530d65a"
  },
  "destination": "world",
  "rentingDate": {
    "$date": "2021-09-13T00:00:00Z"
  },
  "dateAvailable": {
    "$date": "2021-09-11T00:00:00Z"
  },
  "user": {
    "$oid": "607051793dbb8a1739024adb"
  },
  "comments": [],
  "images": "/../../assets/img/gallery/akihabara.jpg",
  "pricePerNight": "520",
  "checkIn": "10:00",
  "checkOut": "11:00",
  "status": "active",
  "amenities": [],
  "reservations": []
},{
  "_id": {
    "$oid": "6093e6b39cdcefad8530d666"
  },
  "apartmentName": "Luxury Apartments",
  "numberOfRooms": 20,
  "numOfGuests": 41,
  "location": {
    "$oid": "6093d3119cdcefad8530d65a"
  },
  "destination": "world",
  "rentingDate": {
    "$date": "2021-10-01T00:00:00Z"
  },
  "dateAvailable": {
    "$date": "2021-05-11T00:00:00Z"
  },
  "user": {
    "$oid": "607051793dbb8a1739024adb"
  },
  "comments": [],
  "images": "/../../assets/img/gallery/luxurypartments.jpg",
  "pricePerNight": "790",
  "checkIn": "10:00",
  "checkOut": "11:00",
  "status": "active",
  "amenities": [],
  "reservations": []
},{
  "_id": {
    "$oid": "6093e6b39cdcefad8530d667"
  },
  "apartmentName": "Shinjuku",
  "numberOfRooms": 10,
  "numOfGuests": 11,
  "location": {
    "$oid": "6093d3119cdcefad8530d65a"
  },
  "destination": "world",
  "rentingDate": {
    "$date": "2021-09-13T00:00:00Z"
  },
  "dateAvailable": {
    "$date": "2021-09-11T00:00:00Z"
  },
  "user": {
   "$oid": "6099ca33a7922d118d155464"
  },
  "comments": [],
  "images": "/../../assets/img/gallery/shinjuku.jpg",
  "pricePerNight": "490",
  "checkIn": "10:00",
  "checkOut": "11:00",
  "status": "active",
  "amenities": [],
  "reservations": []
},{
  "_id": {
    "$oid": "60943816ffdb94fe09f73726"
  },
  "apartmentName": "Cairo Apartments",
  "numberOfRooms": 50,
  "numOfGuests": 102,
  "location": {
    "$oid": "60941bfb9cdcefad8530d66e"
  },
  "destination": "world",
  "rentingDate": {
    "$date": "2021-10-20T00:00:00Z"
  },
  "dateAvailable": {
    "$date": "2021-09-20T00:00:00Z"
  },
  "user": {
  "$oid": "60941e6f9cdcefad8530d675"
  },
  "comments": [],
  "images": "/../../assets/img/gallery/cairoapartments.jpg",
  "pricePerNight": "160",
  "checkIn": "09:00",
  "checkOut": "11:00",
  "status": "active",
  "amenities": [],
  "reservations": []
},{
  "_id": {
    "$oid": "60943816ffdb94fe09f73727"
  },
  "apartmentName": "Aldau Heights",
  "numberOfRooms": 80,
  "numOfGuests": 182,
  "location": {
    "$oid": "60941bfb9cdcefad8530d66e"
  },
  "destination": "world",
  "rentingDate": {
    "$date": "2021-11-29T00:00:00Z"
  },
  "dateAvailable": {
    "$date": "2021-08-12T00:00:00Z"
  },
  "user": {
    "$oid": "6099ca33a7922d118d155464"
  },
  "comments": [],
  "images": "/../../assets/img/gallery/aldauheights.jpg",
  "pricePerNight": "170",
  "checkIn": "09:00",
  "checkOut": "11:00",
  "status": "active",
  "amenities": [],
  "reservations": []
},{
  "_id": {
    "$oid": "60943816ffdb94fe09f73728"
  },
  "apartmentName": "Oasis",
  "numberOfRooms": 30,
  "numOfGuests": 60,
  "location": {
    "$oid": "60941bfb9cdcefad8530d66e"
  },
  "destination": "world",
  "rentingDate": {
    "$date": "2021-10-20T00:00:00Z"
  },
  "dateAvailable": {
    "$date": "2021-09-20T00:00:00Z"
  },
  "user": {
     "$oid": "60941e6f9cdcefad8530d675"
  },
  "comments": [],
  "images": "/../../assets/img/gallery/oasis.jpg",
  "pricePerNight": "110",
  "checkIn": "09:00",
  "checkOut": "11:00",
  "status": "active",
  "amenities": [],
  "reservations": []
},{
  "_id": {
    "$oid": "60943816ffdb94fe09f73729"
  },
  "apartmentName": "High Rose",
  "numberOfRooms": 40,
  "numOfGuests": 110,
  "location": {
    "$oid": "60941bfb9cdcefad8530d66f"
  },
  "destination": "world",
  "rentingDate": {
    "$date": "2021-11-22T00:00:00Z"
  },
  "dateAvailable": {
    "$date": "2021-09-10T00:00:00Z"
  },
  "user": {
    "$oid": "6099ca33a7922d118d155464"
  },
  "comments": [],
  "images": "/../../assets/img/gallery/highrose.jpg",
  "pricePerNight": "175",
  "checkIn": "09:00",
  "checkOut": "11:00",
  "status": "active",
  "amenities": [],
  "reservations": []
},{
  "_id": {
    "$oid": "60943816ffdb94fe09f7372a"
  },
  "apartmentName": "Mx Grand Suits",
  "numberOfRooms": 50,
  "numOfGuests": 108,
  "location": {
    "$oid": "60941bfb9cdcefad8530d66f"
  },
  "destination": "world",
  "rentingDate": {
    "$date": "2021-11-22T00:00:00Z"
  },
  "dateAvailable": {
    "$date": "2021-09-10T00:00:00Z"
  },
  "user": {
    "$oid": "60941e6f9cdcefad8530d675"
  },
  "comments": [],
  "images": "/../../assets/img/gallery/mxgrandsuits.jpg",
  "pricePerNight": "190",
  "checkIn": "09:00",
  "checkOut": "11:00",
  "status": "active",
  "amenities": [],
  "reservations": []
},{
  "_id": {
    "$oid": "60943816ffdb94fe09f7372b"
  },
  "apartmentName": "Uliv",
  "numberOfRooms": 60,
  "numOfGuests": 180,
  "location": {
    "$oid": "60941bfb9cdcefad8530d66f"
  },
  "destination": "world",
  "rentingDate": {
    "$date": "2021-11-22T00:00:00Z"
  },
  "dateAvailable": {
    "$date": "2021-09-10T00:00:00Z"
  },
  "user": {
    "$oid": "6099ca33a7922d118d155464"
  },
  "comments": [],
  "images": "/../../assets/img/gallery/uliv.jpg",
  "pricePerNight": "175",
  "checkIn": "08:00",
  "checkOut": "12:00",
  "status": "active",
  "amenities": [],
  "reservations": []
},{
  "_id": {
    "$oid": "60943816ffdb94fe09f7372c"
  },
  "apartmentName": "City Base Apartments",
  "numberOfRooms": 50,
  "numOfGuests": 90,
  "location": {
    "$oid": "60941bfb9cdcefad8530d670"
  },
  "destination": "world",
  "rentingDate": {
    "$date": "2021-11-22T00:00:00Z"
  },
  "dateAvailable": {
    "$date": "2021-09-10T00:00:00Z"
  },
  "user": {
    "$oid": "60941e6f9cdcefad8530d675"
  },
  "comments": [],
  "images": "/../../assets/img/gallery/citybaseapartments.jpg",
  "pricePerNight": "201",
  "checkIn": "09:00",
  "checkOut": "13:00",
  "status": "active",
  "amenities": [],
  "reservations": []
},{
  "_id": {
    "$oid": "60943816ffdb94fe09f7372d"
  },
  "apartmentName": "Monte",
  "numberOfRooms": 70,
  "numOfGuests": 100,
  "location": {
    "$oid": "60941bfb9cdcefad8530d670"
  },
  "destination": "world",
  "rentingDate": {
    "$date": "2021-11-22T00:00:00Z"
  },
  "dateAvailable": {
    "$date": "2021-09-10T00:00:00Z"
  },
  "user": {
    "$oid": "6099ca33a7922d118d155464"
  },
  "comments": [],
  "images": "/../../assets/img/gallery/monte.jpg",
  "pricePerNight": "171",
  "checkIn": "09:00",
  "checkOut": "13:00",
  "status": "active",
  "amenities": [],
  "reservations": []
},{
  "_id": {
    "$oid": "60943816ffdb94fe09f7372e"
  },
  "apartmentName": "Ad Apartments",
  "numberOfRooms": 45,
  "numOfGuests": 60,
  "location": {
    "$oid": "60941bfb9cdcefad8530d670"
  },
  "destination": "world",
  "rentingDate": {
    "$date": "2021-11-22T00:00:00Z"
  },
  "dateAvailable": {
    "$date": "2021-09-10T00:00:00Z"
  },
  "user": {
     "$oid": "60941e6f9cdcefad8530d675"
  },
  "comments": [],
  "images": "/../../assets/img/gallery/adapartments.jpg",
  "pricePerNight": "201",
  "checkIn": "09:00",
  "checkOut": "13:00",
  "status": "active",
  "amenities": [],
  "reservations": []
},{
  "_id": {
    "$oid": "609467c832321e34cbf44db7"
  },
  "apartmentName": "Garden Lux",
  "numberOfRooms": 5,
  "numOfGuests": 6,
  "location": {
    "$oid": "609451f932321e34cbf44da7"
  },
  "destination": "serbia",
  "rentingDate": {
    "$date": "2020-05-08T00:00:00Z"
  },
  "dateAvailable": {
    "$date": "2020-05-18T00:00:00Z"
  },
  "user": {
    "$oid": "607051793dbb8a1739024ad8"
  },
  "comments": [],
  "images": "/../../assets/img/gallery/apartman1.jpg",
  "pricePerNight": "60",
  "checkIn": "14:00",
  "checkOut": "12:00",
  "status": "active",
  "amenities": [],
  "reservations": []
},{
  "_id": {
    "$oid": "609467c832321e34cbf44db8"
  },
  "apartmentName": "Platan",
  "numberOfRooms": 6,
  "numOfGuests": 4,
  "location": {
    "$oid": "609451f932321e34cbf44da7"
  },
  "destination": "serbia",
  "rentingDate": {
    "$date": "2021-04-15T00:00:00Z"
  },
  "dateAvailable": {
    "$date": "2021-04-23T00:00:00Z"
  },
  "user": {
    "$oid": "6099ca33a7922d118d155464"
  },
  "comments": [],
  "images": "/../../assets/img/gallery/platan.jpg",
  "pricePerNight": "80",
  "checkIn": "13:30",
  "checkOut": "11:00",
  "status": "active",
  "amenities": [],
  "reservations": []
},{
  "_id": {
    "$oid": "609467c832321e34cbf44db9"
  },
  "apartmentName": "Banostor",
  "numberOfRooms": 7,
  "numOfGuests": 6,
  "location": {
    "$oid": "609451f932321e34cbf44da7"
  },
  "destination": "serbia",
  "rentingDate": {
    "$date": "2021-03-25T00:00:00Z"
  },
  "dateAvailable": {
    "$date": "1970-01-01T00:00:00Z"
  },
  "user": {
     "$oid": "60941e6f9cdcefad8530d675"
  },
  "comments": [],
  "images": "/../../assets/img/gallery/banostor.jpg",
  "pricePerNight": "45",
  "checkIn": "12:30",
  "checkOut": "10:00",
  "status": "active",
  "amenities": [],
  "reservations": []
},{
  "_id": {
    "$oid": "60980702f3252d7c8ba188d6"
  },
  "apartmentName": "Casa Paricular",
  "numberOfRooms": 11,
  "numOfGuests": 20,
  "location": {
    "$oid": "60980239f3252d7c8ba188ce"
  },
  "destination": "world",
  "rentingDate": {
    "$date": "2021-07-25T00:00:00Z"
  },
  "dateAvailable": {
    "$date": "1970-08-10T00:00:00Z"
  },
  "user": {
    "$oid": "6099ca33a7922d118d155464"
  },
  "comments": [],
  "images": "/../../assets/img/gallery/casaparticular.jpg",
  "pricePerNight": "190",
  "checkIn": "10:00",
  "checkOut": "11:00",
  "status": "active",
  "amenities": [],
  "reservations": []
},{
  "_id": {
    "$oid": "60980702f3252d7c8ba188d7"
  },
  "apartmentName": "Cuba apartments",
  "numberOfRooms": 20,
  "numOfGuests": 42,
  "location": {
    "$oid": "60980239f3252d7c8ba188ce"
  },
  "destination": "world",
  "rentingDate": {
    "$date": "2021-07-25T00:00:00Z"
  },
  "dateAvailable": {
    "$date": "1970-08-10T00:00:00Z"
  },
  "user": {
    "$oid": "60941e6f9cdcefad8530d675"
  },
  "comments": [],
  "images": "/../../assets/img/gallery/cub.jpg",
  "pricePerNight": "45",
  "checkIn": "12:30",
  "checkOut": "10:00",
  "status": "active",
  "amenities": [],
  "reservations": []
},{
  "_id": {
    "$oid": "60980702f3252d7c8ba188d8"
  },
  "apartmentName": "AHT apartments",
  "numberOfRooms": 10,
  "numOfGuests": 30,
  "location": {
    "$oid": "60980239f3252d7c8ba188ce"
  },
  "destination": "world",
  "rentingDate": {
    "$date": "2021-07-25T00:00:00Z"
  },
  "dateAvailable": {
    "$date": "1970-08-10T00:00:00Z"
  },
  "user": {
    "$oid": "6099ca33a7922d118d155464"
  },
  "comments": [],
  "images": "/../../assets/img/gallery/aht.jpg",
  "pricePerNight": "45",
  "checkIn": "12:30",
  "checkOut": "10:00",
  "status": "active",
  "amenities": [],
  "reservations": []
},{
  "_id": {
    "$oid": "60980702f3252d7c8ba188d9"
  },
  "apartmentName": "Eqo Que Chualodge",
  "numberOfRooms": 10,
  "numOfGuests": 30,
  "location": {
    "$oid": "60980239f3252d7c8ba188cf"
  },
  "destination": "world",
  "rentingDate": {
    "$date": "2021-07-25T00:00:00Z"
  },
  "dateAvailable": {
    "$date": "1970-08-10T00:00:00Z"
  },
  "user": {
     "$oid": "60941e6f9cdcefad8530d675"
  },
  "comments": [],
  "images": "/../../assets/img/gallery/eqoquechualodge.jpg",
  "pricePerNight": "90",
  "checkIn": "10:30",
  "checkOut": "10:00",
  "status": "active",
  "amenities": [],
  "reservations": []
},{
  "_id": {
    "$oid": "60980702f3252d7c8ba188da"
  },
  "apartmentName": "Intipunku",
  "numberOfRooms": 20,
  "numOfGuests": 20,
  "location": {
    "$oid": "60980239f3252d7c8ba188cf"
  },
  "destination": "world",
  "rentingDate": {
    "$date": "2021-07-30T00:00:00Z"
  },
  "dateAvailable": {
    "$date": "1970-08-29T00:00:00Z"
  },
  "user": {
    "$oid": "6099ca33a7922d118d155464"
  },
  "comments": [],
  "images": "/../../assets/img/gallery/intipunku.jpg",
  "pricePerNight": "87",
  "checkIn": "10:00",
  "checkOut": "12:00",
  "status": "active",
  "amenities": [],
  "reservations": []
},{
  "_id": {
    "$oid": "60980702f3252d7c8ba188db"
  },
  "apartmentName": "Orange House",
  "numberOfRooms": 15,
  "numOfGuests": 28,
  "location": {
    "$oid": "60980239f3252d7c8ba188cf"
  },
  "destination": "world",
  "rentingDate": {
    "$date": "2021-07-25T00:00:00Z"
  },
  "dateAvailable": {
    "$date": "1970-08-10T00:00:00Z"
  },
  "user": {
    "$oid": "60941e6f9cdcefad8530d675"
  },
  "comments": [],
  "images": "/../../assets/img/gallery/orangehous.jpg",
  "pricePerNight": "90",
  "checkIn": "10:30",
  "checkOut": "10:00",
  "status": "active",
  "amenities": [],
  "reservations": []
},{
  "_id": {
    "$oid": "609840ddfda7725537840b80"
  },
  "apartmentName": "Zupan",
  "numberOfRooms": 4,
  "numOfGuests": 4,
  "location": {
    "$oid": "60983bfefda7725537840b7c"
  },
  "destination": "serbia",
  "rentingDate": {
    "$date": "2020-09-05T00:00:00Z"
  },
  "dateAvailable": {
    "$date": "2020-09-15T00:00:00Z"
  },
  "user": {
    "$oid": "607051793dbb8a1739024ad8"
  },
  "comments": [],
  "images": "/../../assets/img/gallery/zupan.jpg",
  "pricePerNight": "50",
  "checkIn": "15:00",
  "checkOut": "12:00",
  "status": "active",
  "amenities": [],
  "reservations": []
},{
  "_id": {
    "$oid": "609840ddfda7725537840b81"
  },
  "apartmentName": "Apartmani M",
  "numberOfRooms": 5,
  "numOfGuests": 6,
  "location": {
    "$oid": "60983bfefda7725537840b7c"
  },
  "destination": "serbia",
  "rentingDate": {
    "$date": "2021-05-15T00:00:00Z"
  },
  "dateAvailable": {
    "$date": "2021-05-21T00:00:00Z"
  },
  "user": {
    "$oid": "60941e6f9cdcefad8530d675"
  },
  "comments": [],
  "images": "/../../assets/img/gallery/aprtmanim.jpg",
  "pricePerNight": "35",
  "checkIn": "14:00",
  "checkOut": "11:00",
  "status": "active",
  "amenities": [],
  "reservations": []
},{
  "_id": {
    "$oid": "609840ddfda7725537840b82"
  },
  "apartmentName": "SAN",
  "numberOfRooms": 5,
  "numOfGuests": 6,
  "location": {
    "$oid": "60983bfefda7725537840b7c"
  },
  "destination": "serbia",
  "rentingDate": {
    "$date": "2021-03-08T00:00:00Z"
  },
  "dateAvailable": {
    "$date": "2021-03-24T00:00:00Z"
  },
  "user": {
    "$oid": "60941e6f9cdcefad8530d675"
  },
  "comments": [],
  "images": "/../../assets/img/gallery/san.jpg",
  "pricePerNight": "55",
  "checkIn": "13:30",
  "checkOut": "11:00",
  "status": "active",
  "amenities": [],
  "reservations": []
},{
  "_id": {
    "$oid": "60985f53a8ae3a182e4d6347"
  },
  "apartmentName": "Apartmani NS",
  "numberOfRooms": 4,
  "numOfGuests": 2,
  "location": {
    "$oid": "60985c22a8ae3a182e4d6343"
  },
  "destination": "serbia",
  "rentingDate": {
    "$date": "2021-04-12T00:00:00Z"
  },
  "dateAvailable": {
    "$date": "2021-04-16T00:00:00Z"
  },
  "user": {
    "$oid": "6099ca33a7922d118d155464"
  },
  "comments": [],
  "images": "/../../assets/img/gallery/apartmanins.jpg",
  "pricePerNight": "70",
  "checkIn": "12:30",
  "checkOut": "11:30",
  "status": "active",
  "amenities": [],
  "reservations": []
},{
  "_id": {
    "$oid": "60985f53a8ae3a182e4d6348"
  },
  "apartmentName": "Arena",
  "numberOfRooms": 5,
  "numOfGuests": 6,
  "location": {
    "$oid": "60985c22a8ae3a182e4d6343"
  },
  "destination": "serbia",
  "rentingDate": {
    "$date": "2021-04-28T00:00:00Z"
  },
  "dateAvailable": {
    "$date": "2021-04-30T00:00:00Z"
  },
  "user": {
     "$oid": "60941e6f9cdcefad8530d675"
  },
  "comments": [],
  "images": "/../../assets/img/gallery/arena.jpg",
  "pricePerNight": "60",
  "checkIn": "13:30",
  "checkOut": "11:30",
  "status": "active",
  "amenities": [],
  "reservations": []
},{
  "_id": {
    "$oid": "60985f53a8ae3a182e4d6349"
  },
  "apartmentName": "Stari grad",
  "numberOfRooms": 5,
  "numOfGuests": 4,
  "location": {
    "$oid": "60985c22a8ae3a182e4d6343"
  },
  "destination": "serbia",
  "rentingDate": {
    "$date": "2021-05-02T00:00:00Z"
  },
  "dateAvailable": {
    "$date": "2021-05-08T00:00:00Z"
  },
  "user": {
    "$oid": "6099ca33a7922d118d155464"
  },
  "comments": [],
  "images": "/../../assets/img/gallery/starigrad.jpg",
  "pricePerNight": "45",
  "checkIn": "12:30",
  "checkOut": "11:30",
  "status": "active",
  "amenities": [],
  "reservations": []
},{
  "_id": {
    "$oid": "60a166efbb35b20fcb12fca1"
  },
  "apartmentName": "Aleksandar",
  "numberOfRooms": 4,
  "numOfGuests": 2,
  "location": {
    "$oid": "60a13bfbea98c419ce8a5a67"
  },
  "destination": "serbia",
  "rentingDate": {
    "$date": "2021-04-07T00:00:00Z"
  },
  "dateAvailable": {
    "$date": "2021-04-12T00:00:00Z"
  },
  "user": {
     "$oid": "60941e6f9cdcefad8530d675"
  },
  "comments": [],
  "images": "/../../assets/img/gallery/aleks.jpg",
  "pricePerNight": "25",
  "checkIn": "13:30",
  "checkOut": "11:30",
  "status": "active",
  "amenities": [],
  "reservations": []
},{
  "_id": {
    "$oid": "60a166efbb35b20fcb12fca2"
  },
  "apartmentName": "Kristal",
  "numberOfRooms": 6,
  "numOfGuests": 4,
  "location": {
    "$oid": "60a13bfbea98c419ce8a5a67"
  },
  "destination": "serbia",
  "rentingDate": {
    "$date": "2021-06-17T00:00:00Z"
  },
  "dateAvailable": {
    "$date": "2021-06-22T00:00:00Z"
  },
  "user": {
    "$oid": "6099ca33a7922d118d155464"
  },
  "comments": [],
  "images": "/../../assets/img/gallery/kristal.jpg",
  "pricePerNight": "45",
  "checkIn": "13:30",
  "checkOut": "12:30",
  "status": "active",
  "amenities": [],
  "reservations": []
},{
  "_id": {
    "$oid": "60a166efbb35b20fcb12fca3"
  },
  "apartmentName": "Centar President",
  "numberOfRooms": 7,
  "numOfGuests": 6,
  "location": {
    "$oid": "60a13bfbea98c419ce8a5a67"
  },
  "destination": "serbia",
  "rentingDate": {
    "$date": "2021-03-27T00:00:00Z"
  },
  "dateAvailable": {
    "$date": "2021-04-02T00:00:00Z"
  },
  "user": {
     "$oid": "60941e6f9cdcefad8530d675"
  },
  "comments": [],
  "images": "/../../assets/img/gallery/centarpresident.jpg",
  "pricePerNight": "35",
  "checkIn": "13:30",
  "checkOut": "10:30",
  "status": "active",
  "amenities": [],
  "reservations": []
},{
  "_id": {
     "$oid": "607051793dbb8a1739024ada"
  },
  "apartmentName": "Jezer0",
  "numberOfRooms": 5,
  "numOfGuests": 7,
  "location": {
    "$oid": "60a180c0b78a6c17419187d4"
  },
  "destination": "serbia",
  "rentingDate": {
    "$date": "2021-03-27T00:00:00Z"
  },
  "dateAvailable": {
    "$date": "2021-04-02T00:00:00Z"
  },
  "user": {
    "$oid": "6099ca33a7922d118d155464"
  },
  "comments": [],
  "images": "/../../assets/img/gallery/jezerot.jpg",
  "pricePerNight": "65",
  "checkIn": "12:30",
  "checkOut": "10:30",
  "status": "active",
  "amenities": [],
  "reservations": []
},{
  "_id": {
    "$oid": "60a18693b78a6c17419187dc"
  },
  "apartmentName": "Tipi Tara",
  "numberOfRooms": 5,
  "numOfGuests": 5,
  "location": {
    "$oid": "60a180c0b78a6c17419187d4"
  },
  "destination": "serbia",
  "rentingDate": {
    "$date": "2021-04-07T00:00:00Z"
  },
  "dateAvailable": {
    "$date": "2021-04-12T00:00:00Z"
  },
  "user": {
     "$oid": "60941e6f9cdcefad8530d675"
  },
  "comments": [],
  "images": "/../../assets/img/gallery/tipitara.jpeg",
  "pricePerNight": "55",
  "checkIn": "13:30",
  "checkOut": "11:30",
  "status": "active",
  "amenities": [],
  "reservations": []
},{
  "_id": {
    "$oid": "60a18693b78a6c17419187dd"
  },
  "apartmentName": "Planinski kutak",
  "numberOfRooms": 5,
  "numOfGuests": 2,
  "location": {
    "$oid": "60a180c0b78a6c17419187d4"
  },
  "destination": "serbia",
  "rentingDate": {
    "$date": "2021-02-17T00:00:00Z"
  },
  "dateAvailable": {
    "$date": "2021-02-25T00:00:00Z"
  },
  "user": {
    "$oid": "6099ca33a7922d118d155464"
  },
  "comments": [],
  "images": "/../../assets/img/gallery/kutak.jpg",
  "pricePerNight": "70",
  "checkIn": "12:30",
  "checkOut": "10:00",
  "status": "active",
  "amenities": [],
  "reservations": []
}]
